<svg width="16" height="16" viewBox="0 0 16 16" fill="none" xmlns="http://www.w3.org/2000/svg">
<path d="M15.9994 7.89261C15.9962 7.52692 15.6958 7.23307 15.3334 7.23307C15.3301 7.23307 15.3268 7.23307 15.3236 7.23307C14.9546 7.23633 14.6607 7.53998 14.664 7.90894C14.6999 10.854 12.7572 13.5118 9.93619 14.3673C7.29801 15.1672 4.42474 14.2334 2.7465 12.0915L5.03858 12.4017C5.40427 12.4507 5.74057 12.196 5.78954 11.8303C5.83852 11.4646 5.58385 11.1283 5.21816 11.0793L1.40129 10.5634C1.0911 10.5308 0.722151 10.6842 0.65032 11.1348L0.137703 14.9452C0.0887272 15.3109 0.343403 15.6472 0.709091 15.6961C0.738477 15.6994 0.767862 15.7027 0.800513 15.7027C1.13029 15.7027 1.41435 15.4611 1.46006 15.1247L1.75065 12.9796C3.28197 14.8962 5.61976 15.9867 8.02938 15.9867C8.79668 15.9867 9.5705 15.8757 10.328 15.6472C13.7106 14.6187 16.0419 11.4287 15.9994 7.89261Z" fill="white"/>
<path d="M0.666645 8.7448C0.66991 8.7448 0.673175 8.7448 0.67644 8.7448C1.04539 8.74153 1.33925 8.43788 1.33599 8.07219C1.30007 5.12383 3.24279 2.46932 6.06381 1.61387C8.6726 0.823727 11.5165 1.72815 13.2013 3.82433L10.9549 3.52068C10.5892 3.46844 10.2529 3.72638 10.2039 4.09207C10.1549 4.45775 10.4096 4.79406 10.7753 4.84303L14.5922 5.36218C15.1277 5.40462 15.3268 4.99323 15.3431 4.79079L15.859 0.980451C15.908 0.614762 15.6533 0.27846 15.2876 0.229484C14.922 0.183773 14.5857 0.435183 14.5367 0.800872L14.2396 2.99174C12.2185 0.47763 8.80974 -0.60964 5.67527 0.340496C2.28939 1.36246 -0.0418757 4.55244 0.000570201 8.08851C0.00710035 8.4542 0.304222 8.7448 0.666645 8.7448Z" fill="white"/>
</svg>
