<svg width="80" height="80" viewBox="0 0 80 80" fill="none" xmlns="http://www.w3.org/2000/svg">
<path fill-rule="evenodd" clip-rule="evenodd" d="M74.1578 8.72024C74.5555 9.40898 74.3195 10.2897 73.6307 10.6873L10.5711 47.0948L15.5245 47.9446C16.3083 48.0791 16.8347 48.8236 16.7002 49.6074C16.5658 50.3912 15.8213 50.9176 15.0375 50.7832L6.15651 49.2595C5.73469 49.1871 5.36692 48.9309 5.15292 48.5603C4.93893 48.1896 4.9009 47.743 5.04914 47.3415L8.1701 38.8885C8.44556 38.1425 9.27367 37.761 10.0197 38.0364C10.7658 38.3119 11.1473 39.14 10.8718 39.886L9.13112 44.6007L72.1907 8.19316C72.8795 7.79552 73.7602 8.0315 74.1578 8.72024ZM61.6 23.2403H76V76.0403H61.6V23.2403ZM64.48 26.1203V73.1603H73.12V26.1203H64.48ZM42.4 34.7603H56.8V76.0403H42.4V34.7603ZM45.28 37.6403V73.1603H53.92V37.6403H45.28ZM23.2 46.2803H37.6V76.0403H23.2V46.2803ZM26.08 49.1603V73.1603H34.72V49.1603H26.08ZM4 57.8003H18.4V76.0403H4V57.8003ZM6.88 60.6803V73.1603H15.52V60.6803H6.88Z" fill="#7A84A9"/>
</svg>
