<svg width="50" height="120" viewBox="0 0 50 120" fill="none" xmlns="http://www.w3.org/2000/svg">
<circle cx="25" cy="95" r="24.2" stroke="#FF0000" stroke-width="1.6"/>
<path d="M33 92L25 100M25 100L17 92M25 100V0" stroke="#191919" stroke-width="1.6"/>
</svg>
